<?xml version="1.0" encoding="utf-8"?>
<!-- Generator: Adobe Illustrator 25.4.0, SVG Export Plug-In . SVG Version: 6.00 Build 0)  -->
<svg version="1.1" id="Слой_1" xmlns="http://www.w3.org/2000/svg" xmlns:xlink="http://www.w3.org/1999/xlink" x="0px" y="0px"
	 viewBox="0 0 125 31" width="125" height="31" style="enable-background:new 0 0 125 31;" xml:space="preserve">
<style type="text/css">
	.st0{fill:url(#SVGID_1_);}
	.st1{fill:#858585;}
	.st2{fill:url(#SVGID_00000040561653552482638290000017150460109333984702_);}
</style>
<radialGradient id="SVGID_1_" cx="38.3224" cy="37.6832" r="1" gradientTransform="matrix(23.8149 0.1548 0.149 -22.9139 -798.0602 873.6436)" gradientUnits="userSpaceOnUse">
	<stop  offset="0" style="stop-color:#E30613"/>
	<stop  offset="0.69" style="stop-color:#FCEC00"/>
	<stop  offset="0.93" style="stop-color:#029F28"/>
</radialGradient>
<path class="st0" d="M113,26c-1-3.3-1.6-6.8-1.5-10.2c-0.1-3.5,0.5-6.9,1.5-10.2c0.1-0.2,0.1-0.3,0.2-0.5c0.1-0.3,0.3-0.6,0.4-0.9
	c-0.7,0.5-5,4.3-8.7,7.2l-14.4,3v2.9l14.6,3.1l8.2,6.5C113.2,26.6,113.1,26.3,113,26z"/>
<path class="st1" d="M20.6,14.4L0.7,12.9v5.2l19.9-1.5V14.4z"/>
<path d="M27,24.7h-4V6.2h7.5c3.8,0,6.7,2,6.7,5.9c0,3.7-3.1,6-6.7,6H27V24.7z M27,16.6h1.3c2.8,0,4.3-2,4.3-4.4
	c0-3.5-1.9-4.4-4.9-4.4H27V16.6z"/>
<path d="M43.3,24.7h-4V6.2h7.5c3.8,0,6.7,2,6.7,5.9c0,2.9-1.9,4.9-4.4,5.7l4.8,6.8h-4.5l-4.6-6.5h-1.5V24.7z M43.3,16.6h1.3
	c2.8,0,4.3-2,4.3-4.4c0-3.5-1.9-4.4-4.9-4.4h-0.7V16.6z"/>
<path class="st1" d="M55.4,14.3h3.9v2.6h-3.9V14.3z"/>
<path d="M65.3,19.9c0,2.1,0.3,2.9,2,2.9c1.9-0.2,3.7-0.7,5.4-1.6v-15h4v18.5h-4V23c-2,0.9-5.3,2.1-7.6,2.1c-2.5,0-3.7-1-3.7-4.5V6.2
	h4V19.9z"/>
<path d="M79.6,6.2h12l-7.8,16.7h7.9v1.8H78.8l7.8-16.7h-7V6.2z"/>
<radialGradient id="SVGID_00000163052666423258051270000006282662065602181513_" cx="38.3461" cy="37.8474" r="1" gradientTransform="matrix(24.1855 0 0 -45.8569 -813.5359 1752.2224)" gradientUnits="userSpaceOnUse">
	<stop  offset="0.13" style="stop-color:#851622"/>
	<stop  offset="0.16" style="stop-color:#A6101D"/>
	<stop  offset="0.19" style="stop-color:#C10C18"/>
	<stop  offset="0.22" style="stop-color:#D40915"/>
	<stop  offset="0.25" style="stop-color:#DF0714"/>
	<stop  offset="0.28" style="stop-color:#E30613"/>
	<stop  offset="0.5" style="stop-color:#FCD600"/>
	<stop  offset="0.69" style="stop-color:#00923E"/>
	<stop  offset="0.9" style="stop-color:#E30613"/>
</radialGradient>
<path style="fill:url(#SVGID_00000163052666423258051270000006282662065602181513_);" d="M118.4,0c-0.9,0-1.8,0.6-2.6,1.7
	c-0.4,0.6-0.7,1.2-1,1.8c-0.2,0.4-0.4,0.8-0.5,1.3c-0.1,0.2-0.1,0.3-0.2,0.5c-1,3.3-1.6,6.8-1.5,10.2c-0.1,3.5,0.5,6.9,1.5,10.2
	c0.1,0.3,0.2,0.6,0.3,0.8c0.2,0.5,0.4,0.9,0.6,1.4c0.3,0.7,0.8,1.3,1.3,1.9c0.3,0.3,0.6,0.6,1,0.8c0.4,0.2,0.8,0.3,1.2,0.4
	c2.8,0,5.9-6.2,5.9-15.5C124.3,6.2,121.2,0,118.4,0z"/>
</svg>
