<?xml version="1.0" encoding="utf-8"?>
<!-- Generator: Adobe Illustrator 25.4.0, SVG Export Plug-In . SVG Version: 6.00 Build 0)  -->
<svg version="1.1" id="Слой_1" xmlns="http://www.w3.org/2000/svg" xmlns:xlink="http://www.w3.org/1999/xlink" x="0px" y="0px"
	 viewBox="0 0 10 18" style="enable-background:new 0 0 10 18;" xml:space="preserve">
<style type="text/css">
	.st0{fill-rule:evenodd;clip-rule:evenodd;}
</style>
<path class="st0" d="M2.6,13.2c0-1.3,0-2.7,0-4c0-0.2-0.1-0.3-0.3-0.3C1.9,9,1.4,8.9,1,9c-0.2,0-0.2,0-0.2-0.2c0-0.8,0-1.7,0-2.5
	C0.8,6.1,0.8,6,1,6c0.5,0,0.9,0,1.4,0c0.3,0,0.3-0.1,0.3-0.3c0-0.6,0-1.3,0-1.9c0-0.8,0.2-1.5,0.7-2.1C4,0.9,4.9,0.6,5.9,0.5
	c1,0,2.1,0,3.2,0c0.1,0,0.2,0,0.2,0.2c0,0.8,0,1.7,0,2.5c0,0.2-0.1,0.2-0.2,0.2c-0.5,0-1,0-1.5,0c-0.7,0-1.1,0.3-1.1,0.9
	c0,0.5,0,1,0,1.5C6.4,6,6.5,6,6.6,6c0.8,0,1.5,0,2.3,0c0.2,0,0.3,0,0.3,0.3C9.1,7.1,9,7.9,8.9,8.8C8.9,9,8.8,9,8.7,9
	C8,9,7.4,9,6.8,9C6.4,9,6.4,8.9,6.4,9.4c0,2.6,0,5.2,0,7.8c0,0.3-0.1,0.3-0.4,0.3c-1,0-2.1,0-3.1,0c-0.3,0-0.3-0.1-0.3-0.3
	C2.6,15.8,2.6,14.5,2.6,13.2z"/>
</svg>
